// Jest Snapshot v1, https://goo.gl/fbAQLP

exports[`should render NotFound 1`] = `
ShallowWrapper {
  Symbol(enzyme.__root__): [Circular],
  Symbol(enzyme.__unrendered__): <NotFound />,
  Symbol(enzyme.__renderer__): Object {
    "batchedUpdates": [Function],
    "getNode": [Function],
    "render": [Function],
    "simulateError": [Function],
    "simulateEvent": [Function],
    "unmount": [Function],
  },
  Symbol(enzyme.__node__): Object {
    "instance": null,
    "key": undefined,
    "nodeType": "host",
    "props": Object {
      "children": Array [
        <h1
          className="title"
>
          404
</h1>,
        <div
          className="desc"
>
          The Page you're looking for was not found.
</div>,
        <Link
          replace={false}
          to="/"
>
          <button
                    className="go-back-btn btn btn-primary"
                    type="button"
          >
                    Go Back
          </button>
</Link>,
      ],
      "className": "page-not-found",
    },
    "ref": null,
    "rendered": Array [
      Object {
        "instance": null,
        "key": undefined,
        "nodeType": "host",
        "props": Object {
          "children": "404",
          "className": "title",
        },
        "ref": null,
        "rendered": "404",
        "type": "h1",
      },
      Object {
        "instance": null,
        "key": undefined,
        "nodeType": "host",
        "props": Object {
          "children": "The Page you're looking for was not found.",
          "className": "desc",
        },
        "ref": null,
        "rendered": "The Page you're looking for was not found.",
        "type": "div",
      },
      Object {
        "instance": null,
        "key": undefined,
        "nodeType": "class",
        "props": Object {
          "children": <button
            className="go-back-btn btn btn-primary"
            type="button"
>
            Go Back
</button>,
          "replace": false,
          "to": "/",
        },
        "ref": null,
        "rendered": Object {
          "instance": null,
          "key": undefined,
          "nodeType": "host",
          "props": Object {
            "children": "Go Back",
            "className": "go-back-btn btn btn-primary",
            "type": "button",
          },
          "ref": null,
          "rendered": "Go Back",
          "type": "button",
        },
        "type": [Function],
      },
    ],
    "type": "div",
  },
  Symbol(enzyme.__nodes__): Array [
    Object {
      "instance": null,
      "key": undefined,
      "nodeType": "host",
      "props": Object {
        "children": Array [
          <h1
            className="title"
>
            404
</h1>,
          <div
            className="desc"
>
            The Page you're looking for was not found.
</div>,
          <Link
            replace={false}
            to="/"
>
            <button
                        className="go-back-btn btn btn-primary"
                        type="button"
            >
                        Go Back
            </button>
</Link>,
        ],
        "className": "page-not-found",
      },
      "ref": null,
      "rendered": Array [
        Object {
          "instance": null,
          "key": undefined,
          "nodeType": "host",
          "props": Object {
            "children": "404",
            "className": "title",
          },
          "ref": null,
          "rendered": "404",
          "type": "h1",
        },
        Object {
          "instance": null,
          "key": undefined,
          "nodeType": "host",
          "props": Object {
            "children": "The Page you're looking for was not found.",
            "className": "desc",
          },
          "ref": null,
          "rendered": "The Page you're looking for was not found.",
          "type": "div",
        },
        Object {
          "instance": null,
          "key": undefined,
          "nodeType": "class",
          "props": Object {
            "children": <button
              className="go-back-btn btn btn-primary"
              type="button"
>
              Go Back
</button>,
            "replace": false,
            "to": "/",
          },
          "ref": null,
          "rendered": Object {
            "instance": null,
            "key": undefined,
            "nodeType": "host",
            "props": Object {
              "children": "Go Back",
              "className": "go-back-btn btn btn-primary",
              "type": "button",
            },
            "ref": null,
            "rendered": "Go Back",
            "type": "button",
          },
          "type": [Function],
        },
      ],
      "type": "div",
    },
  ],
  Symbol(enzyme.__options__): Object {
    "adapter": ReactSixteenAdapter {
      "options": Object {
        "enableComponentDidUpdateOnSetState": true,
        "lifecycles": Object {
          "componentDidUpdate": Object {
            "onSetState": true,
          },
          "getDerivedStateFromProps": true,
          "getSnapshotBeforeUpdate": true,
          "setState": Object {
            "skipsComponentDidUpdateOnNullish": true,
          },
        },
      },
    },
  },
}
`;
